<svg width="24" height="25" viewBox="0 0 24 25" fill="none" xmlns="http://www.w3.org/2000/svg">
<rect x="0.570833" y="1.1265" width="22.8583" height="22.8583" rx="6.27917" stroke="#333333" stroke-width="1.14167"/>
<path d="M15.5455 7.41284C16.0281 7.41284 16.4137 7.54101 16.7023 7.79735C16.9954 8.0537 17.142 8.41532 17.142 8.88223C17.142 9.31252 17.0022 9.64897 16.7226 9.89158C16.5011 10.0832 16.2212 10.1992 15.8828 10.2395C15.739 10.2566 15.6193 10.3672 15.6098 10.5117C15.6003 10.6573 15.4794 10.7705 15.3335 10.7705H15.0954C14.8075 10.7705 14.572 10.5411 14.5644 10.2533L14.555 9.89908C14.5491 9.67675 14.7278 9.49333 14.9502 9.49333C15.2974 9.49333 15.5613 9.44984 15.7417 9.36287C15.9266 9.2759 16.019 9.11797 16.019 8.8891C16.019 8.72888 15.9762 8.603 15.8905 8.51145C15.8048 8.4199 15.6853 8.37412 15.532 8.37412C15.3696 8.37412 15.2433 8.42219 15.1531 8.51832C14.9935 8.68036 14.8334 8.89596 14.6059 8.89596H14.4645C14.1658 8.89596 13.9069 8.65151 13.9999 8.36769C14.0257 8.28912 14.0583 8.21345 14.0978 8.14067C14.2241 7.91637 14.409 7.74014 14.6525 7.61196C14.9006 7.47922 15.1982 7.41284 15.5455 7.41284ZM15.099 12.5557C14.8961 12.5557 14.7292 12.4962 14.5984 12.3772C14.4721 12.2536 14.409 12.1025 14.409 11.924C14.409 11.7409 14.4721 11.5876 14.5984 11.464C14.7292 11.3404 14.8961 11.2786 15.099 11.2786C15.2974 11.2786 15.4598 11.3404 15.5861 11.464C15.7169 11.5876 15.7823 11.7409 15.7823 11.924C15.7823 12.1025 15.7169 12.2536 15.5861 12.3772C15.4598 12.4962 15.2974 12.5557 15.099 12.5557Z" fill="#333333"/>
<path fill-rule="evenodd" clip-rule="evenodd" d="M11.683 12.8752C14.3824 15.5738 14.9947 12.4518 16.7135 14.1693C18.3704 15.8258 19.3228 16.1577 17.2234 18.2565C16.9604 18.4678 15.2897 21.0103 9.41801 15.1403C3.54563 9.26951 6.08665 7.59703 6.29804 7.33414C8.40248 5.22956 8.72864 6.18744 10.3856 7.84394C12.1043 9.56218 8.98361 10.1766 11.683 12.8752Z" fill="#130F26"/>
</svg>
