<svg width="17" height="22" viewBox="0 0 17 22" fill="none" xmlns="http://www.w3.org/2000/svg">
<path fill-rule="evenodd" clip-rule="evenodd" d="M12.5183 1.08202C12.1749 0.999629 11.8188 0.999799 11.3475 1.00002L8.85752 1.00005C8.26008 1.00004 7.767 1.00003 7.36533 1.03282C6.94815 1.06688 6.56466 1.13999 6.20446 1.32339C5.64585 1.60782 5.19169 2.06166 4.90707 2.61987C4.72353 2.97983 4.65038 3.36305 4.6163 3.77993C4.58348 4.18132 4.58349 4.67405 4.5835 5.27106V11.5623C4.58349 12.1593 4.58348 12.6521 4.6163 13.0534C4.65038 13.4703 4.72353 13.8536 4.90707 14.2135C5.19169 14.7717 5.64585 15.2256 6.20446 15.51C6.56466 15.6934 6.94815 15.7665 7.36533 15.8006C7.767 15.8334 8.26007 15.8333 8.8575 15.8333H12.1844C12.7819 15.8333 13.275 15.8334 13.6766 15.8006C14.0938 15.7665 14.4773 15.6934 14.8375 15.51C15.3961 15.2256 15.8503 14.7717 16.1349 14.2135C16.3184 13.8536 16.3916 13.4703 16.4256 13.0534C16.4585 12.6521 16.4585 12.1593 16.4584 11.5623L16.4585 6.1074C16.4587 5.63645 16.4589 5.2806 16.3764 4.93744C16.3037 4.63473 16.1837 4.34535 16.021 4.07992C15.8365 3.77901 15.5845 3.52751 15.2511 3.19465L14.2623 2.20652C13.9292 1.87335 13.6775 1.62161 13.3764 1.43721C13.1108 1.27455 12.8212 1.15469 12.5183 1.08202ZM11.2632 2.48338H8.88817C8.25243 2.48338 7.82026 2.48395 7.48621 2.51123C7.16082 2.53779 6.99442 2.58595 6.87835 2.64505C6.59904 2.78726 6.37196 3.01418 6.22965 3.29329C6.17051 3.40928 6.12232 3.57557 6.09574 3.90072C6.06844 4.23454 6.06787 4.66641 6.06787 5.3017V11.5317C6.06787 12.167 6.06844 12.5988 6.09574 12.9327C6.12232 13.2578 6.17051 13.4241 6.22965 13.5401C6.37196 13.8192 6.59904 14.0461 6.87835 14.1883C6.99442 14.2474 7.16082 14.2956 7.48621 14.3222C7.82026 14.3494 8.25243 14.35 8.88817 14.35H12.1538C12.7895 14.35 13.2217 14.3494 13.5557 14.3222C13.8811 14.2956 14.0475 14.2474 14.1636 14.1883C14.4429 14.0461 14.67 13.8192 14.8123 13.5401C14.8714 13.4241 14.9196 13.2578 14.9462 12.9327C14.9735 12.5988 14.9741 12.167 14.9741 11.5317V6.1917H13.4897C12.26 6.1917 11.2632 5.19553 11.2632 3.9667V2.48338ZM14.6475 4.70837C14.5583 4.60297 14.4159 4.45776 14.148 4.19011L13.2662 3.30884C12.9983 3.04119 12.853 2.89885 12.7475 2.80973V3.9667C12.7475 4.37631 13.0798 4.70837 13.4897 4.70837H14.6475Z" fill="#333333" stroke="#333333" stroke-width="0.2"/>
<path d="M6.41667 5H4.5V16.4167H13.5208V13.3542H6.75L6.41667 5Z" fill="white"/>
<path fill-rule="evenodd" clip-rule="evenodd" d="M8.4348 6.24852C8.0914 6.16613 7.7353 6.1663 7.26402 6.16653L4.77402 6.16655C4.17658 6.16654 3.6835 6.16653 3.28184 6.19933C2.86466 6.23339 2.48117 6.30649 2.12096 6.4899C1.56236 6.77432 1.1082 7.22816 0.823574 7.78637C0.640039 8.14633 0.566886 8.52955 0.532801 8.94644C0.499984 9.34782 0.499991 9.84055 0.5 10.4376V16.7288C0.499991 17.3258 0.499984 17.8186 0.532801 18.22C0.566886 18.6368 0.640039 19.0201 0.823574 19.38C1.1082 19.9382 1.56236 20.3921 2.12096 20.6765C2.48117 20.8599 2.86466 20.933 3.28184 20.9671C3.6835 20.9999 4.17657 20.9998 4.774 20.9998H8.10095C8.69838 20.9998 9.19145 20.9999 9.59312 20.9671C10.0103 20.933 10.3938 20.8599 10.754 20.6765C11.3126 20.3921 11.7668 19.9382 12.0514 19.38C12.2349 19.0201 12.3081 18.6368 12.3422 18.22C12.375 17.8186 12.375 17.3258 12.375 16.7288L12.375 11.2739C12.3752 10.803 12.3754 10.4471 12.2929 10.1039C12.2202 9.80124 12.1003 9.51185 11.9375 9.24642C11.753 8.94551 11.501 8.69401 11.1676 8.36116L10.1788 7.37303C9.84572 7.03986 9.59404 6.78811 9.29292 6.60372C9.0273 6.44106 8.73772 6.32119 8.4348 6.24852ZM7.17966 7.64988H4.80467C4.16893 7.64988 3.73676 7.65046 3.40271 7.67773C3.07733 7.7043 2.91093 7.75245 2.79485 7.81155C2.51555 7.95376 2.28847 8.18068 2.14616 8.45979C2.08701 8.57579 2.03883 8.74207 2.01224 9.06723C1.98495 9.40104 1.98437 9.83291 1.98437 10.4682V16.6982C1.98437 17.3335 1.98495 17.7653 2.01224 18.0992C2.03883 18.4243 2.08701 18.5906 2.14616 18.7066C2.28847 18.9857 2.51555 19.2126 2.79485 19.3548C2.91093 19.4139 3.07733 19.4621 3.40271 19.4887C3.73676 19.5159 4.16893 19.5165 4.80467 19.5165H8.07028C8.70602 19.5165 9.13819 19.5159 9.47224 19.4887C9.79763 19.4621 9.96403 19.4139 10.0801 19.3548C10.3594 19.2126 10.5865 18.9857 10.7288 18.7066C10.7879 18.5906 10.8361 18.4243 10.8627 18.0992C10.89 17.7653 10.8906 17.3335 10.8906 16.6982V11.3582H9.40621C8.17652 11.3582 7.17966 10.362 7.17966 9.13321V7.64988ZM10.564 9.87487C10.4748 9.76948 10.3324 9.62426 10.0645 9.35661L9.18266 8.47535C8.91481 8.2077 8.7695 8.06536 8.66403 7.97623V9.13321C8.66403 9.54282 8.99632 9.87487 9.40621 9.87487H10.564Z" fill="#333333" stroke="#333333" stroke-width="0.2"/>
</svg>
