<svg width="32" height="32" viewBox="0 0 32 32" fill="none" xmlns="http://www.w3.org/2000/svg">
<path d="M0 8C0 3.58172 3.58172 0 8 0H24C28.4183 0 32 3.58172 32 8V24C32 28.4183 28.4183 32 24 32H8C3.58172 32 0 28.4183 0 24V8Z" fill="#7CA5FD" fill-opacity="0.2"/>
<path fill-rule="evenodd" clip-rule="evenodd" d="M26 16.057C26 21.0819 22.3357 25.246 17.5479 25.9943C17.2558 26.0399 17 25.8065 17 25.5091V18.0684H19C19.5523 18.0684 20 17.6182 20 17.0627C20 16.5073 19.5523 16.057 19 16.057H17V14.0456C17 13.4902 17.4477 13.0399 18 13.0399H19C19.5523 13.0399 20 12.5896 20 12.0342C20 11.4788 19.5523 11.0285 19 11.0285H18C16.3431 11.0285 15 12.3793 15 14.0456V16.057H14C13.4477 16.057 13 16.5073 13 17.0627C13 17.6182 13.4477 18.0684 14 18.0684H15V25.5091C15 25.8065 14.7442 26.0399 14.4521 25.9943C9.66427 25.246 6 21.0819 6 16.057C6 10.5027 10.4772 6 16 6C21.5228 6 26 10.5027 26 16.057Z" fill="#5782DD"/>
</svg>
