<svg width="24" height="25" viewBox="0 0 24 25" fill="none" xmlns="http://www.w3.org/2000/svg">
<rect x="0.570833" y="1.1265" width="22.8583" height="22.8583" rx="6.27917" stroke="#333333" stroke-width="1.14167"/>
<path d="M8.7846 13.8413C7.0094 13.8413 5.57031 15.2804 5.57031 17.0556C5.57031 18.1207 6.43376 18.9842 7.49888 18.9842H13.9275C14.9926 18.9842 15.856 18.1207 15.856 17.0556C15.856 15.2804 14.4169 13.8413 12.6417 13.8413H8.7846Z" fill="#333333"/>
<path d="M10.7133 6.12695C8.93811 6.12695 7.49902 7.56604 7.49902 9.34124C7.49902 11.1164 8.93811 12.5555 10.7133 12.5555C12.4885 12.5555 13.9276 11.1164 13.9276 9.34124C13.9276 7.56604 12.4885 6.12695 10.7133 6.12695Z" fill="#333333"/>
<path d="M16.8316 7.4126C17.3142 7.4126 17.6998 7.54077 17.9884 7.79711C18.2816 8.05345 18.4282 8.41508 18.4282 8.88199C18.4282 9.31227 18.2883 9.64872 18.0087 9.89133C17.7873 10.083 17.5073 10.1989 17.169 10.2393C17.0252 10.2564 16.9055 10.3669 16.896 10.5114C16.8864 10.657 16.7655 10.7702 16.6196 10.7702H16.3815C16.0937 10.7702 15.8582 10.5409 15.8505 10.2531L15.8412 9.89884C15.8353 9.67651 16.0139 9.49309 16.2363 9.49309C16.5836 9.49309 16.8474 9.4496 17.0278 9.36263C17.2127 9.27565 17.3052 9.11773 17.3052 8.88885C17.3052 8.72864 17.2623 8.60276 17.1766 8.51121C17.0909 8.41965 16.9714 8.37388 16.8181 8.37388C16.6557 8.37388 16.5295 8.42194 16.4393 8.51807C16.2796 8.68012 16.1195 8.89572 15.8921 8.89572H15.7506C15.4519 8.89572 15.1931 8.65126 15.286 8.36744C15.3118 8.28888 15.3444 8.21321 15.3839 8.14043C15.5102 7.91613 15.6951 7.73989 15.9387 7.61172C16.1867 7.47897 16.4844 7.4126 16.8316 7.4126ZM16.3851 12.5555C16.1822 12.5555 16.0153 12.4959 15.8845 12.3769C15.7583 12.2533 15.6951 12.1023 15.6951 11.9238C15.6951 11.7407 15.7583 11.5873 15.8845 11.4637C16.0153 11.3401 16.1822 11.2783 16.3851 11.2783C16.5836 11.2783 16.7459 11.3401 16.8722 11.4637C17.003 11.5873 17.0684 11.7407 17.0684 11.9238C17.0684 12.1023 17.003 12.2533 16.8722 12.3769C16.7459 12.4959 16.5836 12.5555 16.3851 12.5555Z" fill="#333333"/>
</svg>
